info face="Arial" size=20 bold=0 italic=0 charset="" unicode=0 stretchH=100 smooth=1 aa=1 padding=1,1,1,1 spacing=-2,-2
common lineHeight=24 base=19 scaleW=512 scaleH=512 pages=1 packed=0
page id=0 file="default.png"
chars count=97
char id=0       x=246  y=21   width=13   height=15   xoffset=1    yoffset=5    xadvance=15   page=0    chnl=0 
char id=10      x=246  y=21   width=13   height=15   xoffset=1    yoffset=5    xadvance=15   page=0    chnl=0 
char id=32      x=0    y=0    width=0    height=0    xoffset=-1   yoffset=18   xadvance=6    page=0    chnl=0 
char id=33      x=178  y=21   width=4    height=17   xoffset=1    yoffset=3    xadvance=6    page=0    chnl=0 
char id=34      x=488  y=21   width=7    height=7    xoffset=0    yoffset=3    xadvance=7    page=0    chnl=0 
char id=35      x=228  y=21   width=13   height=17   xoffset=0    yoffset=3    xadvance=13   page=0    chnl=0 
char id=36      x=74   y=0    width=12   height=21   xoffset=-1   yoffset=1    xadvance=11   page=0    chnl=0 
char id=37      x=210  y=21   width=18   height=17   xoffset=0    yoffset=3    xadvance=18   page=0    chnl=0 
char id=38      x=103  y=0    width=15   height=18   xoffset=0    yoffset=3    xadvance=14   page=0    chnl=0 
char id=39      x=495  y=21   width=4    height=7    xoffset=0    yoffset=3    xadvance=4    page=0    chnl=0 
char id=40      x=7    y=0    width=7    height=21   xoffset=0    yoffset=3    xadvance=6    page=0    chnl=0 
char id=41      x=14   y=0    width=7    height=21   xoffset=0    yoffset=3    xadvance=7    page=0    chnl=0 
char id=42      x=467  y=21   width=10   height=9    xoffset=-1   yoffset=3    xadvance=8    page=0    chnl=0 
char id=43      x=445  y=21   width=11   height=12   xoffset=0    yoffset=6    xadvance=11   page=0    chnl=0 
char id=44      x=499  y=21   width=5    height=7    xoffset=0    yoffset=16   xadvance=6    page=0    chnl=0 
char id=45      x=16   y=38   width=7    height=4    xoffset=0    yoffset=12   xadvance=7    page=0    chnl=0 
char id=46      x=12   y=38   width=4    height=4    xoffset=1    yoffset=16   xadvance=6    page=0    chnl=0 
char id=47      x=194  y=21   width=8    height=17   xoffset=-1   yoffset=3    xadvance=6    page=0    chnl=0 
char id=48      x=167  y=21   width=11   height=17   xoffset=0    yoffset=3    xadvance=11   page=0    chnl=0 
char id=49      x=64   y=21   width=8    height=17   xoffset=1    yoffset=3    xadvance=11   page=0    chnl=0 
char id=50      x=72   y=21   width=12   height=17   xoffset=-1   yoffset=3    xadvance=11   page=0    chnl=0 
char id=51      x=84   y=21   width=12   height=17   xoffset=0    yoffset=3    xadvance=12   page=0    chnl=0 
char id=52      x=96   y=21   width=12   height=17   xoffset=0    yoffset=3    xadvance=12   page=0    chnl=0 
char id=53      x=108  y=21   width=12   height=17   xoffset=-1   yoffset=3    xadvance=11   page=0    chnl=0 
char id=54      x=120  y=21   width=12   height=17   xoffset=0    yoffset=3    xadvance=12   page=0    chnl=0 
char id=55      x=132  y=21   width=11   height=17   xoffset=0    yoffset=3    xadvance=11   page=0    chnl=0 
char id=56      x=143  y=21   width=12   height=17   xoffset=0    yoffset=3    xadvance=12   page=0    chnl=0 
char id=57      x=155  y=21   width=12   height=17   xoffset=0    yoffset=3    xadvance=12   page=0    chnl=0 
char id=58      x=417  y=21   width=4    height=13   xoffset=1    yoffset=7    xadvance=6    page=0    chnl=0 
char id=59      x=241  y=21   width=5    height=16   xoffset=0    yoffset=7    xadvance=6    page=0    chnl=0 
char id=60      x=421  y=21   width=12   height=13   xoffset=0    yoffset=5    xadvance=12   page=0    chnl=0 
char id=61      x=477  y=21   width=11   height=8    xoffset=0    yoffset=7    xadvance=11   page=0    chnl=0 
char id=62      x=433  y=21   width=12   height=13   xoffset=0    yoffset=5    xadvance=12   page=0    chnl=0 
char id=63      x=182  y=21   width=12   height=17   xoffset=0    yoffset=3    xadvance=12   page=0    chnl=0 
char id=64      x=53   y=0    width=21   height=21   xoffset=0    yoffset=3    xadvance=20   page=0    chnl=0 
char id=65      x=118  y=0    width=17   height=17   xoffset=-2   yoffset=3    xadvance=13   page=0    chnl=0 
char id=66      x=135  y=0    width=13   height=17   xoffset=0    yoffset=3    xadvance=13   page=0    chnl=0 
char id=67      x=148  y=0    width=15   height=17   xoffset=0    yoffset=3    xadvance=14   page=0    chnl=0 
char id=68      x=163  y=0    width=14   height=17   xoffset=1    yoffset=3    xadvance=15   page=0    chnl=0 
char id=69      x=177  y=0    width=13   height=17   xoffset=1    yoffset=3    xadvance=14   page=0    chnl=0 
char id=70      x=190  y=0    width=12   height=17   xoffset=1    yoffset=3    xadvance=12   page=0    chnl=0 
char id=71      x=202  y=0    width=15   height=17   xoffset=0    yoffset=3    xadvance=15   page=0    chnl=0 
char id=72      x=217  y=0    width=13   height=17   xoffset=1    yoffset=3    xadvance=15   page=0    chnl=0 
char id=73      x=230  y=0    width=4    height=17   xoffset=1    yoffset=3    xadvance=6    page=0    chnl=0 
char id=74      x=234  y=0    width=10   height=17   xoffset=0    yoffset=3    xadvance=10   page=0    chnl=0 
char id=75      x=244  y=0    width=14   height=17   xoffset=0    yoffset=3    xadvance=13   page=0    chnl=0 
char id=76      x=258  y=0    width=11   height=17   xoffset=0    yoffset=3    xadvance=11   page=0    chnl=0 
char id=77      x=269  y=0    width=16   height=17   xoffset=0    yoffset=3    xadvance=16   page=0    chnl=0 
char id=78      x=285  y=0    width=13   height=17   xoffset=1    yoffset=3    xadvance=15   page=0    chnl=0 
char id=79      x=298  y=0    width=16   height=17   xoffset=0    yoffset=3    xadvance=16   page=0    chnl=0 
char id=80      x=314  y=0    width=13   height=17   xoffset=1    yoffset=3    xadvance=14   page=0    chnl=0 
char id=81      x=86   y=0    width=17   height=18   xoffset=0    yoffset=3    xadvance=16   page=0    chnl=0 
char id=82      x=327  y=0    width=15   height=17   xoffset=1    yoffset=3    xadvance=14   page=0    chnl=0 
char id=83      x=342  y=0    width=14   height=17   xoffset=-1   yoffset=3    xadvance=13   page=0    chnl=0 
char id=84      x=356  y=0    width=13   height=17   xoffset=0    yoffset=3    xadvance=13   page=0    chnl=0 
char id=85      x=369  y=0    width=13   height=17   xoffset=1    yoffset=3    xadvance=15   page=0    chnl=0 
char id=86      x=382  y=0    width=16   height=17   xoffset=-1   yoffset=3    xadvance=13   page=0    chnl=0 
char id=87      x=398  y=0    width=21   height=17   xoffset=-1   yoffset=3    xadvance=19   page=0    chnl=0 
char id=88      x=419  y=0    width=16   height=17   xoffset=-1   yoffset=3    xadvance=13   page=0    chnl=0 
char id=89      x=435  y=0    width=16   height=17   xoffset=-1   yoffset=3    xadvance=14   page=0    chnl=0 
char id=90      x=451  y=0    width=13   height=17   xoffset=0    yoffset=3    xadvance=13   page=0    chnl=0 
char id=91      x=21   y=0    width=6    height=21   xoffset=0    yoffset=3    xadvance=6    page=0    chnl=0 
char id=92      x=202  y=21   width=8    height=17   xoffset=-1   yoffset=3    xadvance=6    page=0    chnl=0 
char id=93      x=27   y=0    width=6    height=21   xoffset=0    yoffset=3    xadvance=6    page=0    chnl=0 
char id=94      x=456  y=21   width=11   height=10   xoffset=-1   yoffset=3    xadvance=9    page=0    chnl=0 
char id=95      x=23   y=38   width=14   height=4    xoffset=-1   yoffset=20   xadvance=12   page=0    chnl=0 
char id=96      x=504  y=21   width=7    height=5    xoffset=-1   yoffset=3    xadvance=7    page=0    chnl=0 
char id=97      x=259  y=21   width=12   height=13   xoffset=0    yoffset=7    xadvance=11   page=0    chnl=0 
char id=98      x=464  y=0    width=11   height=17   xoffset=0    yoffset=3    xadvance=11   page=0    chnl=0 
char id=99      x=271  y=21   width=12   height=13   xoffset=0    yoffset=7    xadvance=10   page=0    chnl=0 
char id=100     x=475  y=0    width=11   height=17   xoffset=0    yoffset=3    xadvance=11   page=0    chnl=0 
char id=101     x=283  y=21   width=12   height=13   xoffset=0    yoffset=7    xadvance=11   page=0    chnl=0 
char id=102     x=486  y=0    width=8    height=17   xoffset=0    yoffset=3    xadvance=7    page=0    chnl=0 
char id=103     x=494  y=0    width=11   height=17   xoffset=0    yoffset=7    xadvance=11   page=0    chnl=0 
char id=104     x=0    y=21   width=11   height=17   xoffset=0    yoffset=3    xadvance=11   page=0    chnl=0 
char id=105     x=505  y=0    width=4    height=17   xoffset=0    yoffset=3    xadvance=4    page=0    chnl=0 
char id=106     x=0    y=0    width=7    height=21   xoffset=-3   yoffset=3    xadvance=4    page=0    chnl=0 
char id=107     x=11   y=21   width=11   height=17   xoffset=0    yoffset=3    xadvance=10   page=0    chnl=0 
char id=108     x=230  y=0    width=4    height=17   xoffset=0    yoffset=3    xadvance=4    page=0    chnl=0 
char id=109     x=295  y=21   width=17   height=13   xoffset=0    yoffset=7    xadvance=16   page=0    chnl=0 
char id=110     x=312  y=21   width=11   height=13   xoffset=0    yoffset=7    xadvance=11   page=0    chnl=0 
char id=111     x=323  y=21   width=12   height=13   xoffset=0    yoffset=7    xadvance=12   page=0    chnl=0 
char id=112     x=22   y=21   width=11   height=17   xoffset=0    yoffset=7    xadvance=11   page=0    chnl=0 
char id=113     x=33   y=21   width=11   height=17   xoffset=0    yoffset=7    xadvance=11   page=0    chnl=0 
char id=114     x=335  y=21   width=8    height=13   xoffset=0    yoffset=7    xadvance=7    page=0    chnl=0 
char id=115     x=343  y=21   width=11   height=13   xoffset=-1   yoffset=7    xadvance=10   page=0    chnl=0 
char id=116     x=44   y=21   width=8    height=17   xoffset=0    yoffset=3    xadvance=7    page=0    chnl=0 
char id=117     x=354  y=21   width=11   height=13   xoffset=0    yoffset=7    xadvance=11   page=0    chnl=0 
char id=118     x=365  y=21   width=12   height=13   xoffset=-1   yoffset=7    xadvance=10   page=0    chnl=0 
char id=119     x=377  y=21   width=17   height=13   xoffset=-1   yoffset=7    xadvance=14   page=0    chnl=0 
char id=120     x=394  y=21   width=12   height=13   xoffset=-1   yoffset=7    xadvance=10   page=0    chnl=0 
char id=121     x=52   y=21   width=12   height=17   xoffset=-1   yoffset=7    xadvance=10   page=0    chnl=0 
char id=122     x=406  y=21   width=11   height=13   xoffset=0    yoffset=7    xadvance=11   page=0    chnl=0 
char id=123     x=33   y=0    width=8    height=21   xoffset=0    yoffset=3    xadvance=7    page=0    chnl=0 
char id=124     x=49   y=0    width=4    height=21   xoffset=1    yoffset=3    xadvance=6    page=0    chnl=0 
char id=125     x=41   y=0    width=8    height=21   xoffset=0    yoffset=3    xadvance=7    page=0    chnl=0 
char id=126     x=0    y=38   width=12   height=7    xoffset=0    yoffset=8    xadvance=12   page=0    chnl=0 
kernings count=73
kerning first=49 second=49 amount=-1
kerning first=84 second=58 amount=-2
kerning first=80 second=65 amount=-1
kerning first=65 second=84 amount=-1
kerning first=76 second=86 amount=-1
kerning first=65 second=87 amount=-1
kerning first=65 second=89 amount=-1
kerning first=84 second=97 amount=-2
kerning first=84 second=99 amount=-2
kerning first=86 second=101 amount=-1
kerning first=84 second=105 amount=-1
kerning first=89 second=111 amount=-2
kerning first=89 second=112 amount=-1
kerning first=89 second=113 amount=-2
kerning first=84 second=114 amount=-1
kerning first=84 second=115 amount=-2
kerning first=84 second=117 amount=-1
kerning first=89 second=118 amount=-1
kerning first=84 second=119 amount=-1
kerning first=86 second=121 amount=-1
kerning first=76 second=89 amount=-1
kerning first=119 second=44 amount=-1
kerning first=89 second=117 amount=-1
kerning first=119 second=46 amount=-1
kerning first=76 second=32 amount=-1
kerning first=76 second=87 amount=-1
kerning first=86 second=46 amount=-2
kerning first=89 second=46 amount=-3
kerning first=80 second=44 amount=-3
kerning first=114 second=44 amount=-1
kerning first=86 second=111 amount=-1
kerning first=114 second=46 amount=-1
kerning first=76 second=121 amount=-1
kerning first=89 second=59 amount=-1
kerning first=86 second=114 amount=-1
kerning first=70 second=44 amount=-2
kerning first=89 second=101 amount=-2
kerning first=84 second=46 amount=-2
kerning first=89 second=45 amount=-2
kerning first=84 second=59 amount=-2
kerning first=84 second=121 amount=-1
kerning first=86 second=58 amount=-1
kerning first=65 second=32 amount=-1
kerning first=86 second=65 amount=-1
kerning first=84 second=45 amount=-1
kerning first=89 second=44 amount=-3
kerning first=86 second=45 amount=-1
kerning first=87 second=46 amount=-1
kerning first=89 second=65 amount=-1
kerning first=89 second=58 amount=-1
kerning first=89 second=105 amount=-1
kerning first=70 second=46 amount=-2
kerning first=84 second=101 amount=-2
kerning first=89 second=97 amount=-1
kerning first=84 second=44 amount=-2
kerning first=70 second=65 amount=-1
kerning first=86 second=59 amount=-1
kerning first=118 second=46 amount=-1
kerning first=86 second=97 amount=-1
kerning first=84 second=65 amount=-1
kerning first=86 second=44 amount=-2
kerning first=87 second=44 amount=-1
kerning first=121 second=46 amount=-1
kerning first=65 second=86 amount=-1
kerning first=87 second=65 amount=-1
kerning first=86 second=117 amount=-1
kerning first=87 second=97 amount=-1
kerning first=121 second=44 amount=-1
kerning first=84 second=111 amount=-2
kerning first=76 second=84 amount=-1
kerning first=80 second=46 amount=-3
kerning first=32 second=65 amount=-1
kerning first=118 second=44 amount=-1
